<?xml version="1.0" encoding="UTF-8" standalone="no"?>
<!DOCTYPE log SYSTEM "logger.dtd">
<log>
<record>
  <date>2018-06-06T12:20:50</date>
  <millis>1528267850123</millis>
  <sequence>0</sequence>
  <level>START</level>
  <class>com.kms.katalon.core.logging.KeywordLogger</class>
  <method>startSuite</method>
  <thread>1</thread>
  <message>Start Test Suite : Test Suites/Feed</message>
  <nestedLevel>0</nestedLevel>
  <property name="name">Feed</property>
  <property name="description"></property>
  <property name="id">Test Suites/Feed</property>
</record>
<record>
  <date>2018-06-06T12:20:50</date>
  <millis>1528267850289</millis>
  <sequence>1</sequence>
  <level>RUN_DATA</level>
  <class>com.kms.katalon.core.logging.KeywordLogger</class>
  <method>logMessage</method>
  <thread>1</thread>
  <message>Logging run data &amp;apos;hostName&amp;apos; with value &amp;apos;acer - DESKTOP-AUANCVF&amp;apos;</message>
  <nestedLevel>0</nestedLevel>
  <property name="hostName">acer - DESKTOP-AUANCVF</property>
</record>
<record>
  <date>2018-06-06T12:20:50</date>
  <millis>1528267850301</millis>
  <sequence>2</sequence>
  <level>RUN_DATA</level>
  <class>com.kms.katalon.core.logging.KeywordLogger</class>
  <method>logMessage</method>
  <thread>1</thread>
  <message>Logging run data &amp;apos;os&amp;apos; with value &amp;apos;Windows 10 64bit&amp;apos;</message>
  <nestedLevel>0</nestedLevel>
  <property name="os">Windows 10 64bit</property>
</record>
<record>
  <date>2018-06-06T12:20:50</date>
  <millis>1528267850303</millis>
  <sequence>3</sequence>
  <level>RUN_DATA</level>
  <class>com.kms.katalon.core.logging.KeywordLogger</class>
  <method>logMessage</method>
  <thread>1</thread>
  <message>Logging run data &amp;apos;hostAddress&amp;apos; with value &amp;apos;192.168.100.2&amp;apos;</message>
  <nestedLevel>0</nestedLevel>
  <property name="hostAddress">192.168.100.2</property>
</record>
<record>
  <date>2018-06-06T12:20:50</date>
  <millis>1528267850304</millis>
  <sequence>4</sequence>
  <level>RUN_DATA</level>
  <class>com.kms.katalon.core.logging.KeywordLogger</class>
  <method>logMessage</method>
  <thread>1</thread>
  <message>Logging run data &amp;apos;katalonVersion&amp;apos; with value &amp;apos;5.4.1.1&amp;apos;</message>
  <nestedLevel>0</nestedLevel>
  <property name="katalonVersion">5.4.1.1</property>
</record>
<record>
  <date>2018-06-06T12:20:51</date>
  <millis>1528267851248</millis>
  <sequence>5</sequence>
  <level>START</level>
  <class>com.kms.katalon.core.logging.KeywordLogger</class>
  <method>startTest</method>
  <thread>1</thread>
  <message>Start Test Case : Test Cases/TestLike</message>
  <nestedLevel>1</nestedLevel>
  <property name="name">Test Cases/TestLike</property>
  <property name="description"></property>
  <property name="id">Test Cases/TestLike</property>
  <property name="source">E:\\Projects\\finesses\\Finesse\\Test Cases\\TestLike.tc</property>
  <property name="isOptional">false</property>
</record>
<record>
  <date>2018-06-06T12:20:51</date>
  <millis>1528267851362</millis>
  <sequence>6</sequence>
  <level>INFO</level>
  <class>com.kms.katalon.core.logging.KeywordLogger</class>
  <method>logMessage</method>
  <thread>1</thread>
  <message>Evaluating variables for test case</message>
  <nestedLevel>1</nestedLevel>
</record>
