Suite/Test/Step Name,Browser,Description,Start time,End time,Duration,Status
Feed,,,2018-06-06 15:41:12,2018-06-06 15:41:38,25.871s,PASSED
,,,,,,
Test Cases/TestLike,,,2018-06-06 15:41:13,2018-06-06 15:41:38,25.432s,PASSED
startApplication,,,2018-06-06 15:41:13,2018-06-06 15:41:27,13.906s,PASSED
"Statement - beforeVal = com.kms.katalon.core.mobile.keyword.MobileBuiltInKeywords.getText(com.kms.katalon.core.testobject.ObjectRepository.findTestObject(feed/android.widget.TextView5 - 5), 10)",,,2018-06-06 15:41:27,2018-06-06 15:41:28,1.114s,PASSED
Statement - beVal = java.lang.Integer.parseInt(beforeVal),,,2018-06-06 15:41:28,2018-06-06 15:41:29,0.020s,PASSED
tap,,,2018-06-06 15:41:29,2018-06-06 15:41:29,0.738s,PASSED
takeScreenshot,,,2018-06-06 15:41:29,2018-06-06 15:41:33,3.944s,PASSED
"Statement - afterValue = com.kms.katalon.core.mobile.keyword.MobileBuiltInKeywords.getText(com.kms.katalon.core.testobject.ObjectRepository.findTestObject(feed/android.widget.TextView5 - 6), 10)",,,2018-06-06 15:41:33,2018-06-06 15:41:33,0.113s,PASSED
Statement - afVal = java.lang.Integer.parseInt(afterValue),,,2018-06-06 15:41:33,2018-06-06 15:41:33,0.007s,PASSED
verifyGreaterThan,,,2018-06-06 15:41:33,2018-06-06 15:41:33,0.032s,PASSED
closeApplication,,,2018-06-06 15:41:33,2018-06-06 15:41:36,2.897s,PASSED
