Suite/Test/Step Name,Browser,Description,Start time,End time,Duration,Status
Feed,,,2018-06-07 09:53:11,2018-06-07 09:53:34,22.825s,PASSED
,,,,,,
Test Cases/TestLike,,,2018-06-07 09:53:12,2018-06-07 09:53:34,22.481s,PASSED
startApplication,,,2018-06-07 09:53:12,2018-06-07 09:53:24,11.953s,PASSED
"Statement - beforeVal = com.kms.katalon.core.mobile.keyword.MobileBuiltInKeywords.getText(com.kms.katalon.core.testobject.ObjectRepository.findTestObject(feed/android.widget.TextView5 - 5), 10)",,,2018-06-07 09:53:24,2018-06-07 09:53:26,1.972s,PASSED
Statement - beVal = java.lang.Integer.parseInt(beforeVal),,,2018-06-07 09:53:26,2018-06-07 09:53:26,0.012s,PASSED
tap,,,2018-06-07 09:53:26,2018-06-07 09:53:26,0.259s,PASSED
takeScreenshot,,,2018-06-07 09:53:26,2018-06-07 09:53:29,2.912s,PASSED
"Statement - afterValue = com.kms.katalon.core.mobile.keyword.MobileBuiltInKeywords.getText(com.kms.katalon.core.testobject.ObjectRepository.findTestObject(feed/android.widget.TextView5 - 6), 10)",,,2018-06-07 09:53:29,2018-06-07 09:53:29,0.090s,PASSED
Statement - afVal = java.lang.Integer.parseInt(afterValue),,,2018-06-07 09:53:29,2018-06-07 09:53:29,0.010s,PASSED
verifyGreaterThan,,,2018-06-07 09:53:29,2018-06-07 09:53:29,0.024s,PASSED
closeApplication,,,2018-06-07 09:53:29,2018-06-07 09:53:32,2.744s,PASSED
