Suite/Test/Step Name,Browser,Description,Start time,End time,Duration,Status
Feed,,,2018-06-06 13:21:12,2018-06-06 13:21:42,30.100s,PASSED
,,,,,,
Test Cases/TestLike,,,2018-06-06 13:21:12,2018-06-06 13:21:42,29.347s,PASSED
startApplication,,,2018-06-06 13:21:13,2018-06-06 13:21:30,17.198s,PASSED
"Statement - beforeVal = com.kms.katalon.core.mobile.keyword.MobileBuiltInKeywords.getText(com.kms.katalon.core.testobject.ObjectRepository.findTestObject(feed/android.widget.TextView5 - 5), 10)",,,2018-06-06 13:21:30,2018-06-06 13:21:32,1.688s,PASSED
Statement - beVal = java.lang.Integer.parseInt(beforeVal),,,2018-06-06 13:21:32,2018-06-06 13:21:32,0.015s,PASSED
tap,,,2018-06-06 13:21:32,2018-06-06 13:21:33,0.957s,PASSED
takeScreenshot,,,2018-06-06 13:21:33,2018-06-06 13:21:36,3.587s,PASSED
"Statement - afterValue = com.kms.katalon.core.mobile.keyword.MobileBuiltInKeywords.getText(com.kms.katalon.core.testobject.ObjectRepository.findTestObject(feed/android.widget.TextView5 - 6), 10)",,,2018-06-06 13:21:36,2018-06-06 13:21:37,0.117s,PASSED
Statement - afVal = java.lang.Integer.parseInt(afterValue),,,2018-06-06 13:21:37,2018-06-06 13:21:37,0.010s,PASSED
verifyGreaterThan,,,2018-06-06 13:21:37,2018-06-06 13:21:37,0.020s,PASSED
closeApplication,,,2018-06-06 13:21:37,2018-06-06 13:21:40,3.076s,PASSED
