Suite/Test/Step Name,Browser,Description,Start time,End time,Duration,Status
Feed,,,2018-06-06 12:41:09,2018-06-06 12:41:39,29.508s,PASSED
,,,,,,
Test Cases/TestLike,,,2018-06-06 12:41:10,2018-06-06 12:41:39,28.791s,PASSED
startApplication,,,2018-06-06 12:41:11,2018-06-06 12:41:27,16.790s,PASSED
"Statement - beforeVal = com.kms.katalon.core.mobile.keyword.MobileBuiltInKeywords.getText(com.kms.katalon.core.testobject.ObjectRepository.findTestObject(feed/android.widget.TextView5 - 5), 10)",,,2018-06-06 12:41:27,2018-06-06 12:41:29,1.567s,PASSED
Statement - beVal = java.lang.Integer.parseInt(beforeVal),,,2018-06-06 12:41:29,2018-06-06 12:41:29,0.015s,PASSED
tap,,,2018-06-06 12:41:29,2018-06-06 12:41:30,0.671s,PASSED
takeScreenshot,,,2018-06-06 12:41:30,2018-06-06 12:41:33,3.634s,PASSED
"Statement - afterValue = com.kms.katalon.core.mobile.keyword.MobileBuiltInKeywords.getText(com.kms.katalon.core.testobject.ObjectRepository.findTestObject(feed/android.widget.TextView5 - 6), 10)",,,2018-06-06 12:41:33,2018-06-06 12:41:33,0.122s,PASSED
Statement - afVal = java.lang.Integer.parseInt(afterValue),,,2018-06-06 12:41:33,2018-06-06 12:41:33,0.007s,PASSED
verifyGreaterThan,,,2018-06-06 12:41:33,2018-06-06 12:41:33,0.019s,PASSED
closeApplication,,,2018-06-06 12:41:33,2018-06-06 12:41:37,3.013s,PASSED
